…
Now load a survey dataset that you want to study. In this tutorial we will be using
the [Academic Performance Index](https://r-survey.r-forge.r-project.org/survey/html/api.html)
(API) datasets for Californian schools. The datasets contain information for all
schools with at least 100 students and for various probability samples of the
data.

!!! note

    The API program has been discontinued at the end of 2018. Information is archived
    at [https://www.cde.ca.gov/re/pr/api.asp](https://www.cde.ca.gov/re/pr/api.asp)

```julia
julia> apisrs = load_data("apisrs")
200×40 DataFrame
 Row │ Column1  cds             stype    name             sname                          snum   dn ⋯
     │ Int64    Int64           String1  String15         String                         Int64  St ⋯
─────┼──────────────────────────────────────────────────────────────────────────────────────────────
   1 │    1039  15739081534155  H        McFarland High   McFarland High                  1039  Mc ⋯
   2 │    1124  19642126066716  E        Stowers (Cecil   Stowers (Cecil B.) Elementary   1124  AB
   3 │    2868  30664493030640  H        Brea-Olinda Hig  Brea-Olinda High                2868  Br
   4 │    1273  19644516012744  E        Alameda Element  Alameda Elementary              1273  Do
   5 │    4926  40688096043293  E        Sunnyside Eleme  Sunnyside Elementary            4926  Sa ⋯
   6 │    2463  19734456014278  E        Los Molinos Ele  Los Molinos Elementary          2463  Ha
  ⋮  │    ⋮           ⋮            ⋮            ⋮                       ⋮                  ⋮       ⋱
 196 │     969  15635291534775  H        North High       North High                       969  Ke
 197 │    1752  19647336017446  E        Hammel Street E  Hammel Street Elementary        1752  Lo
 198 │    4480  37683386039143  E        Audubon Element  Audubon Elementary              4480  Sa ⋯
 199 │    4062  36678196036222  E        Edison Elementa  Edison Elementary               4062  On
 200 │    2683  24657716025621  E        Franklin Elemen  Franklin Elementary             2683  Me
                                                                     34 columns and 189 rows omitted
```
…
If we're interested in a certain statistic estimated by a specific domain, we
can add the domain as the second parameter to our function. Let's say we want
to find the estimated total number of students enrolled in schools from each
county:

```julia
julia> total(:enroll, :cname, bsrs)
38×3 DataFrame
 Row │ cname            total           SE
     │ String15         Float64         Any
─────┼────────────────────────────────────────────
   1 │ Kern                  1.95823e5  74984.5
   2 │ Los Angeles      867129.0        1.34517e5
   3 │ Orange                1.68786e5  63990.2
   4 │ San Luis Obispo    6720.49       6731.29
   5 │ San Francisco     30319.6        18024.1
   6 │ Modoc              6503.7        6500.84
  ⋮  │        ⋮               ⋮             ⋮
  34 │ Yolo              12171.2        12131.8
  35 │ Calaveras         12976.4        13095.7
  36 │ Napa              39239.0        29841.1
  37 │ Lake               6410.79       6562.72
  38 │ Merced            15392.1        14921.9
                                   27 rows omitted
```
…
