…
### Data manipulation

The provided `DataFrame` is altered by the [`SurveyDesign`](@ref) constructor
in order to add columns for frequency and probability weights, sample and
population sizes and, if necessary, strata and cluster information.

Notice the change in `apisrs`:

```julia
julia> apisrs = load_data("apisrs")
200×40 DataFrame
 Row │ Column1  cds             stype    name             sname                ⋯
     │ Int64    Int64           String1  String15         String               ⋯
─────┼──────────────────────────────────────────────────────────────────────────
   1 │    1039  15739081534155  H        McFarland High   McFarland High       ⋯
   2 │    1124  19642126066716  E        Stowers (Cecil   Stowers (Cecil B.) E
   3 │    2868  30664493030640  H        Brea-Olinda Hig  Brea-Olinda High
   4 │    1273  19644516012744  E        Alameda Element  Alameda Elementary
   5 │    4926  40688096043293  E        Sunnyside Eleme  Sunnyside Elementary ⋯
   6 │    2463  19734456014278  E        Los Molinos Ele  Los Molinos Elementa
  ⋮  │    ⋮           ⋮            ⋮            ⋮                       ⋮      ⋱
 196 │     969  15635291534775  H        North High       North High
 197 │    1752  19647336017446  E        Hammel Street E  Hammel Street Elemen
 198 │    4480  37683386039143  E        Audubon Element  Audubon Elementary   ⋯
 199 │    4062  36678196036222  E        Edison Elementa  Edison Elementary
 200 │    2683  24657716025621  E        Franklin Elemen  Franklin Elementary
                                                 36 columns and 189 rows omitted
…
julia> srs = SurveyDesign(apisrs; weights=:pw);

julia> apisrs
200×45 DataFrame
 Row │ Column1  cds             stype    name             sname                ⋯
     │ Int64    Int64           String1  String15         String               ⋯
─────┼──────────────────────────────────────────────────────────────────────────
   1 │    1039  15739081534155  H        McFarland High   McFarland High       ⋯
   2 │    1124  19642126066716  E        Stowers (Cecil   Stowers (Cecil B.) E
   3 │    2868  30664493030640  H        Brea-Olinda Hig  Brea-Olinda High
   4 │    1273  19644516012744  E        Alameda Element  Alameda Elementary
   5 │    4926  40688096043293  E        Sunnyside Eleme  Sunnyside Elementary ⋯
   6 │    2463  19734456014278  E        Los Molinos Ele  Los Molinos Elementa
  ⋮  │    ⋮           ⋮            ⋮            ⋮                       ⋮      ⋱
 196 │     969  15635291534775  H        North High       North High
 197 │    1752  19647336017446  E        Hammel Street E  Hammel Street Elemen
 198 │    4480  37683386039143  E        Audubon Element  Audubon Elementary   ⋯
 199 │    4062  36678196036222  E        Edison Elementa  Edison Elementary
 200 │    2683  24657716025621  E        Franklin Elemen  Franklin Elementary
                                                 41 columns and 189 rows omitted
…
  The reasoning is the same as in the case of no stratification.

- `_sampsize` - sample sizes

- `_popsize` - population sizes
  
  These match the stratification variable:

  ```julia
  julia> apistrat = load_data("apistrat");

  julia> strat = SurveyDesign(apistrat; strata=:stype, weights=:pw);

  julia> apistrat[:, [:stype, :_sampsize, :_popsize]]
  200×3 DataFrame
   Row │ stype    _sampsize  _popsize
       │ String1  Int64      Float64
  ─────┼──────────────────────────────
     1 │ E              100    4421.0
     2 │ E              100    4421.0
     3 │ E              100    4421.0
     4 │ E              100    4421.0
     5 │ E              100    4421.0
     6 │ E              100    4421.0
    ⋮  │    ⋮         ⋮         ⋮
   196 │ E              100    4421.0
   197 │ H               50     755.0
   198 │ M               50    1018.0
   199 │ E              100    4421.0
   200 │ H               50     755.0
                      189 rows omitted
  ```
…
